\relax 
\@writefile{toc}{\contentsline {chapter}{\numberline {1}Fragen}{2}}
\@writefile{lof}{\addvspace {10\p@ }}
\@writefile{lot}{\addvspace {10\p@ }}
\@writefile{toc}{\contentsline {subsubsection}{Was ist Ansto\IeC {\ss } bzw. Ausl\IeC {\"o}ser des Prozesses?}{2}}
\@writefile{toc}{\contentsline {subsubsection}{Womit endet der Prozess?}{2}}
\@writefile{toc}{\contentsline {subsubsection}{Wer ist/sind Kunde(n)?}{2}}
\@writefile{toc}{\contentsline {subsubsection}{Worin liegt der Nutzen des Prozesses f\IeC {\"u}r den Kunden?}{2}}
\@writefile{toc}{\contentsline {subsubsection}{Woran kann man messen, wie gut dieser Prozess ist?}{2}}
\@writefile{toc}{\contentsline {subsubsection}{Aus welchen T\IeC {\"a}tigkeiten besteht der Prozess?}{2}}
\@writefile{toc}{\contentsline {subsubsection}{Was braucht man f\IeC {\"u}r diesen Prozess (Input)?}{3}}
\@writefile{toc}{\contentsline {subsubsection}{Was wird entlang dieses Prozesses an Output erzeugt?}{4}}
\@writefile{toc}{\contentsline {chapter}{\numberline {2}Istanalyse}{5}}
\@writefile{lof}{\addvspace {10\p@ }}
\@writefile{lot}{\addvspace {10\p@ }}
\@writefile{toc}{\contentsline {section}{\numberline {2.1}Organigramm}{5}}
\@writefile{lof}{\contentsline {figure}{\numberline {2.1}{\ignorespaces Organigramm}}{5}}
\@writefile{toc}{\contentsline {section}{\numberline {2.2}Prozess}{5}}
\@writefile{lof}{\contentsline {figure}{\numberline {2.2}{\ignorespaces Prozess Teil 1}}{6}}
\@writefile{lof}{\contentsline {figure}{\numberline {2.3}{\ignorespaces Prozess Teil 2}}{6}}
\@writefile{toc}{\contentsline {chapter}{\numberline {3}Schwachstellenanalyse}{7}}
\@writefile{lof}{\addvspace {10\p@ }}
\@writefile{lot}{\addvspace {10\p@ }}
\@writefile{toc}{\contentsline {chapter}{\numberline {4}Sollkonzeption}{8}}
\@writefile{lof}{\addvspace {10\p@ }}
\@writefile{lot}{\addvspace {10\p@ }}
\@writefile{lof}{\contentsline {figure}{\numberline {4.1}{\ignorespaces Sollprozess Teil 1}}{8}}
\@writefile{lof}{\contentsline {figure}{\numberline {4.2}{\ignorespaces Sollprozess Teil 2}}{9}}
