\relax 
\@writefile{toc}{\contentsline {chapter}{\numberline {1}L\IeC {\"o}sungsidee}{2}}
\@writefile{lof}{\addvspace {10\p@ }}
\@writefile{lot}{\addvspace {10\p@ }}
\@writefile{toc}{\contentsline {section}{\numberline {1.1}Board}{2}}
\@writefile{toc}{\contentsline {section}{\numberline {1.2}Move}{2}}
\@writefile{toc}{\contentsline {section}{\numberline {1.3}SearchNode}{2}}
\@writefile{toc}{\contentsline {subsubsection}{estimatedCostsToTarget}{2}}
\@writefile{toc}{\contentsline {section}{\numberline {1.4}SlidingPuzzle}{3}}
\@writefile{toc}{\contentsline {subsubsection}{search(Board board)}{3}}
\@writefile{toc}{\contentsline {chapter}{\numberline {2}Implemetierung}{4}}
\@writefile{lof}{\addvspace {10\p@ }}
\@writefile{lot}{\addvspace {10\p@ }}
\@writefile{toc}{\contentsline {section}{\numberline {2.1}Board}{5}}
\@writefile{toc}{\contentsline {section}{\numberline {2.2}Move}{9}}
\@writefile{toc}{\contentsline {section}{\numberline {2.3}SearchNode}{10}}
\@writefile{toc}{\contentsline {section}{\numberline {2.4}SlidingPuzzle}{12}}
\@writefile{toc}{\contentsline {section}{\numberline {2.5}BoardException}{14}}
\@writefile{toc}{\contentsline {section}{\numberline {2.6}InvalidBoardException}{15}}
\@writefile{toc}{\contentsline {section}{\numberline {2.7}IllegalMoveException}{16}}
\@writefile{toc}{\contentsline {section}{\numberline {2.8}InvalidTileNumberException}{17}}
\@writefile{toc}{\contentsline {section}{\numberline {2.9}NoSolutionException}{18}}
\@writefile{toc}{\contentsline {chapter}{\numberline {3}Tests}{19}}
\@writefile{lof}{\addvspace {10\p@ }}
\@writefile{lot}{\addvspace {10\p@ }}
\@writefile{toc}{\contentsline {section}{\numberline {3.1}BoardTest}{20}}
\@writefile{toc}{\contentsline {section}{\numberline {3.2}SearchNodeTest}{25}}
\@writefile{toc}{\contentsline {section}{\numberline {3.3}SlidingPuzzleSolverTest}{28}}
\@writefile{toc}{\contentsline {chapter}{\numberline {4}Testresults}{31}}
\@writefile{lof}{\addvspace {10\p@ }}
\@writefile{lot}{\addvspace {10\p@ }}
\@writefile{lof}{\contentsline {figure}{\numberline {4.1}{\ignorespaces Results}}{32}}
