\contentsline {chapter}{\numberline {1}SAX \& DOM \texttt {->} SAX Implementierung}{2}
\contentsline {section}{\numberline {1.1}Generierte Dateien}{2}
\contentsline {section}{\numberline {1.2}books.dtd}{3}
\contentsline {section}{\numberline {1.3}Implementierung}{4}
\contentsline {section}{\numberline {1.4}Tests}{6}
\contentsline {section}{\numberline {1.5}Testresults}{8}
\contentsline {chapter}{\numberline {2}SAX \& DOM \texttt {->} DOM Implementierung}{9}
\contentsline {section}{\numberline {2.1}Implementierung}{10}
\contentsline {section}{\numberline {2.2}Testresults}{13}
\contentsline {chapter}{\numberline {3}SAX und DOM: Direkter Vergleich}{14}
\contentsline {section}{\numberline {3.1}Testresults}{15}
