\relax 
\@writefile{toc}{\contentsline {chapter}{\numberline {1}NODEJS}{3}}
\@writefile{lof}{\addvspace {10\p@ }}
\@writefile{lot}{\addvspace {10\p@ }}
\@writefile{toc}{\contentsline {section}{\numberline {1.1}Basics}{3}}
\@writefile{toc}{\contentsline {paragraph}{Motivation}{3}}
\@writefile{lof}{\contentsline {figure}{\numberline {1.1}{\ignorespaces Isomorphe Anwendung}}{3}}
\@writefile{toc}{\contentsline {paragraph}{Recap}{3}}
\@writefile{lof}{\contentsline {figure}{\numberline {1.2}{\ignorespaces Architektur}}{4}}
\@writefile{toc}{\contentsline {section}{\numberline {1.2}Module}{4}}
\@writefile{toc}{\contentsline {subsection}{\numberline {1.2.1}Modultypen}{4}}
\@writefile{toc}{\contentsline {paragraph}{Native/Build-in module}{4}}
\@writefile{lof}{\contentsline {figure}{\numberline {1.3}{\ignorespaces Native Module}}{5}}
\@writefile{toc}{\contentsline {paragraph}{Lokale Module}{5}}
\@writefile{lof}{\contentsline {figure}{\numberline {1.4}{\ignorespaces Lokales Modul}}{5}}
\@writefile{toc}{\contentsline {paragraph}{Installierte Module}{5}}
\@writefile{lof}{\contentsline {figure}{\numberline {1.5}{\ignorespaces Installierung Modul}}{6}}
\@writefile{lof}{\contentsline {figure}{\numberline {1.6}{\ignorespaces Installierte Module}}{6}}
\@writefile{lof}{\contentsline {figure}{\numberline {1.7}{\ignorespaces Installierte Module - Benutzung}}{6}}
\@writefile{toc}{\contentsline {section}{\numberline {1.3}WEB FRAMEWORK}{7}}
\@writefile{lof}{\contentsline {figure}{\numberline {1.8}{\ignorespaces Webframeworks - Warum?}}{7}}
\@writefile{toc}{\contentsline {subsection}{\numberline {1.3.1}Features}{7}}
\@writefile{toc}{\contentsline {paragraph}{MVC Architecture}{7}}
\@writefile{toc}{\contentsline {paragraph}{Express}{7}}
\@writefile{lof}{\contentsline {figure}{\numberline {1.9}{\ignorespaces Webframe Express Sample}}{8}}
\@writefile{toc}{\contentsline {paragraph}{Express-Routing}{8}}
\@writefile{lof}{\contentsline {figure}{\numberline {1.10}{\ignorespaces Route Tester}}{8}}
\@writefile{lof}{\contentsline {figure}{\numberline {1.11}{\ignorespaces Route Parameters}}{8}}
\@writefile{toc}{\contentsline {paragraph}{Express-Middleware}{8}}
\@writefile{toc}{\contentsline {subparagraph}{Use Cases}{9}}
\@writefile{lof}{\contentsline {figure}{\numberline {1.12}{\ignorespaces Middleware - Code}}{9}}
\@writefile{lof}{\contentsline {figure}{\numberline {1.13}{\ignorespaces Middleware - Example}}{9}}
\@writefile{lof}{\contentsline {figure}{\numberline {1.14}{\ignorespaces Middleware - Example 2}}{10}}
\@writefile{lof}{\contentsline {figure}{\numberline {1.15}{\ignorespaces Error Handling}}{10}}
\@writefile{toc}{\contentsline {paragraph}{Error Handling}{10}}
\@writefile{toc}{\contentsline {paragraph}{Template Engine}{10}}
\@writefile{lof}{\contentsline {figure}{\numberline {1.16}{\ignorespaces Template Engine}}{11}}
\@writefile{lof}{\contentsline {figure}{\numberline {1.17}{\ignorespaces Template Engine Sample}}{11}}
\@writefile{lof}{\contentsline {figure}{\numberline {1.18}{\ignorespaces Express Basic Configuration}}{12}}
\@writefile{toc}{\contentsline {subsection}{\numberline {1.3.2}Templates Engines}{12}}
\@writefile{toc}{\contentsline {subsubsection}{Handlebar JS}{12}}
\@writefile{lof}{\contentsline {figure}{\numberline {1.19}{\ignorespaces Handlebar Template}}{12}}
\@writefile{lof}{\contentsline {figure}{\numberline {1.20}{\ignorespaces Handlebar Conditional}}{12}}
\@writefile{lof}{\contentsline {figure}{\numberline {1.21}{\ignorespaces Handlebar Loop}}{13}}
\@writefile{lof}{\contentsline {figure}{\numberline {1.22}{\ignorespaces Handlebar Partials}}{13}}
\@writefile{lof}{\contentsline {figure}{\numberline {1.23}{\ignorespaces Handlebar Compile}}{13}}
\@writefile{lof}{\contentsline {figure}{\numberline {1.24}{\ignorespaces Handlebar Helpers}}{14}}
\@writefile{toc}{\contentsline {subsubsection}{Razor (ASP.net)}{14}}
\@writefile{toc}{\contentsline {subsubsection}{JSP (Java)}{14}}
\@writefile{toc}{\contentsline {subsubsection}{Velocity (Java)}{14}}
\@writefile{toc}{\contentsline {chapter}{\numberline {2}ES6 \& More}{15}}
\@writefile{lof}{\addvspace {10\p@ }}
\@writefile{lot}{\addvspace {10\p@ }}
\@writefile{toc}{\contentsline {section}{\numberline {2.1}Template Literals}{15}}
\@writefile{toc}{\contentsline {section}{\numberline {2.2}Constants}{15}}
\@writefile{lof}{\contentsline {figure}{\numberline {2.1}{\ignorespaces Konstanten}}{15}}
\@writefile{toc}{\contentsline {section}{\numberline {2.3}Default Parameters}{15}}
\@writefile{lof}{\contentsline {figure}{\numberline {2.2}{\ignorespaces Default Parameters}}{15}}
\@writefile{toc}{\contentsline {section}{\numberline {2.4}Classes}{16}}
\@writefile{lof}{\contentsline {figure}{\numberline {2.3}{\ignorespaces Class}}{16}}
\@writefile{lof}{\contentsline {figure}{\numberline {2.4}{\ignorespaces Getter/Setter}}{16}}
\@writefile{lof}{\contentsline {figure}{\numberline {2.5}{\ignorespaces Methoden}}{16}}
\@writefile{lof}{\contentsline {figure}{\numberline {2.6}{\ignorespaces Subclass}}{17}}
\@writefile{lof}{\contentsline {figure}{\numberline {2.7}{\ignorespaces Symbols}}{17}}
\@writefile{toc}{\contentsline {section}{\numberline {2.5}Global Symbol}{17}}
\@writefile{lof}{\contentsline {figure}{\numberline {2.8}{\ignorespaces Global Symbols}}{17}}
\@writefile{toc}{\contentsline {section}{\numberline {2.6}Set}{18}}
\@writefile{lof}{\contentsline {figure}{\numberline {2.9}{\ignorespaces Set}}{18}}
\@writefile{toc}{\contentsline {section}{\numberline {2.7}Map}{18}}
\@writefile{lof}{\contentsline {figure}{\numberline {2.10}{\ignorespaces Map}}{18}}
\@writefile{toc}{\contentsline {chapter}{\numberline {3}MongoDB}{19}}
\@writefile{lof}{\addvspace {10\p@ }}
\@writefile{lot}{\addvspace {10\p@ }}
\@writefile{toc}{\contentsline {section}{\numberline {3.1}No SQL = Not Only SQL}{19}}
\@writefile{toc}{\contentsline {subsection}{\numberline {3.1.1}Types}{19}}
\@writefile{toc}{\contentsline {section}{\numberline {3.2}CAP Theorem}{20}}
\@writefile{lof}{\contentsline {figure}{\numberline {3.1}{\ignorespaces Cap Theorem}}{20}}
\@writefile{toc}{\contentsline {section}{\numberline {3.3}MongoDb}{20}}
\@writefile{lof}{\contentsline {figure}{\numberline {3.2}{\ignorespaces Document Sample}}{20}}
\@writefile{toc}{\contentsline {section}{\numberline {3.4}Datastructure}{21}}
\@writefile{lof}{\contentsline {figure}{\numberline {3.3}{\ignorespaces Data Structure}}{21}}
\@writefile{toc}{\contentsline {subsection}{\numberline {3.4.1}Datatypes (BSON)}{21}}
\@writefile{lof}{\contentsline {figure}{\numberline {3.4}{\ignorespaces Document}}{21}}
\@writefile{toc}{\contentsline {section}{\numberline {3.5}CRUD}{22}}
\@writefile{toc}{\contentsline {subsection}{\numberline {3.5.1}Create}{22}}
\@writefile{lof}{\contentsline {figure}{\numberline {3.5}{\ignorespaces Create}}{22}}
\@writefile{toc}{\contentsline {subsection}{\numberline {3.5.2}Read/Query}{22}}
\@writefile{lof}{\contentsline {figure}{\numberline {3.6}{\ignorespaces Read/Query}}{22}}
\@writefile{toc}{\contentsline {subsection}{\numberline {3.5.3}Update}{23}}
\@writefile{lof}{\contentsline {figure}{\numberline {3.7}{\ignorespaces Update}}{23}}
\@writefile{lof}{\contentsline {figure}{\numberline {3.8}{\ignorespaces Update}}{23}}
\@writefile{toc}{\contentsline {subsection}{\numberline {3.5.4}Delete}{23}}
\@writefile{lof}{\contentsline {figure}{\numberline {3.9}{\ignorespaces Delete}}{23}}
\@writefile{toc}{\contentsline {section}{\numberline {3.6}MongoDB-Docker}{24}}
\@writefile{lof}{\contentsline {figure}{\numberline {3.10}{\ignorespaces Docker}}{24}}
\@writefile{toc}{\contentsline {chapter}{\numberline {4}TypeScript}{25}}
\@writefile{lof}{\addvspace {10\p@ }}
\@writefile{lot}{\addvspace {10\p@ }}
\@writefile{lof}{\contentsline {figure}{\numberline {4.1}{\ignorespaces Typescript}}{25}}
\@writefile{toc}{\contentsline {section}{\numberline {4.1}Basics}{25}}
\@writefile{toc}{\contentsline {section}{\numberline {4.2}Setup}{26}}
\@writefile{lof}{\contentsline {figure}{\numberline {4.2}{\ignorespaces Install}}{26}}
\@writefile{lof}{\contentsline {figure}{\numberline {4.3}{\ignorespaces Install}}{26}}
\@writefile{lof}{\contentsline {figure}{\numberline {4.4}{\ignorespaces Install}}{26}}
\@writefile{lof}{\contentsline {figure}{\numberline {4.5}{\ignorespaces Install}}{27}}
\@writefile{toc}{\contentsline {section}{\numberline {4.3}Language}{27}}
\@writefile{toc}{\contentsline {subsection}{\numberline {4.3.1}Basic Types}{27}}
\@writefile{lof}{\contentsline {figure}{\numberline {4.6}{\ignorespaces Basic Types}}{27}}
\@writefile{toc}{\contentsline {subsection}{\numberline {4.3.2}Interface}{27}}
\@writefile{lof}{\contentsline {figure}{\numberline {4.7}{\ignorespaces Interfaces}}{28}}
\@writefile{toc}{\contentsline {subsection}{\numberline {4.3.3}Class}{28}}
\@writefile{lof}{\contentsline {figure}{\numberline {4.8}{\ignorespaces Classes}}{28}}
\@writefile{toc}{\contentsline {subsection}{\numberline {4.3.4}Enums}{29}}
\@writefile{lof}{\contentsline {figure}{\numberline {4.9}{\ignorespaces Enums}}{29}}
\@writefile{toc}{\contentsline {subsection}{\numberline {4.3.5}ForEach}{29}}
\@writefile{toc}{\contentsline {section}{\numberline {4.4}Definition File}{29}}
\@writefile{toc}{\contentsline {chapter}{\numberline {5}SPA}{30}}
\@writefile{lof}{\addvspace {10\p@ }}
\@writefile{lot}{\addvspace {10\p@ }}
\@writefile{toc}{\contentsline {section}{\numberline {5.1}Idea}{30}}
\@writefile{lof}{\contentsline {figure}{\numberline {5.1}{\ignorespaces IDEA}}{30}}
\@writefile{lof}{\contentsline {figure}{\numberline {5.2}{\ignorespaces IDEA}}{31}}
\@writefile{toc}{\contentsline {section}{\numberline {5.2}Basic}{31}}
\@writefile{toc}{\contentsline {section}{\numberline {5.3}Technologies}{31}}
\@writefile{toc}{\contentsline {section}{\numberline {5.4}Frameworks}{31}}
\@writefile{toc}{\contentsline {chapter}{\numberline {6}PWA}{33}}
\@writefile{lof}{\addvspace {10\p@ }}
\@writefile{lot}{\addvspace {10\p@ }}
\@writefile{toc}{\contentsline {section}{\numberline {6.1}History}{33}}
\@writefile{lof}{\contentsline {figure}{\numberline {6.1}{\ignorespaces IDEA}}{34}}
\@writefile{lof}{\contentsline {figure}{\numberline {6.2}{\ignorespaces IDEA}}{34}}
\@writefile{lof}{\contentsline {figure}{\numberline {6.3}{\ignorespaces IDEA}}{35}}
\@writefile{lof}{\contentsline {figure}{\numberline {6.4}{\ignorespaces IDEA}}{35}}
\@writefile{lof}{\contentsline {figure}{\numberline {6.5}{\ignorespaces IDEA}}{36}}
\@writefile{toc}{\contentsline {section}{\numberline {6.2}Features}{36}}
\@writefile{toc}{\contentsline {section}{\numberline {6.3}FIRE Principle}{37}}
\@writefile{toc}{\contentsline {subsection}{\numberline {6.3.1}Fast}{37}}
\@writefile{toc}{\contentsline {subsection}{\numberline {6.3.2}Integrated}{37}}
\@writefile{toc}{\contentsline {subsection}{\numberline {6.3.3}Reliable}{37}}
\@writefile{toc}{\contentsline {subsection}{\numberline {6.3.4}Engaging}{37}}
\@writefile{toc}{\contentsline {section}{\numberline {6.4}Technologien}{38}}
\@writefile{toc}{\contentsline {subsection}{\numberline {6.4.1}Web Manifest}{38}}
\@writefile{lof}{\contentsline {figure}{\numberline {6.6}{\ignorespaces Manifest}}{38}}
\@writefile{lof}{\contentsline {figure}{\numberline {6.7}{\ignorespaces Manifest}}{38}}
\@writefile{toc}{\contentsline {paragraph}{Display Mode}{38}}
\@writefile{lof}{\contentsline {figure}{\numberline {6.8}{\ignorespaces Manifest}}{39}}
\@writefile{toc}{\contentsline {paragraph}{Orientation}{39}}
\@writefile{lof}{\contentsline {figure}{\numberline {6.9}{\ignorespaces Orientation}}{39}}
\@writefile{lof}{\contentsline {figure}{\numberline {6.10}{\ignorespaces Related}}{39}}
\@writefile{toc}{\contentsline {paragraph}{Related}{39}}
\@writefile{toc}{\contentsline {subsection}{\numberline {6.4.2}Service Worker}{40}}
\@writefile{lof}{\contentsline {figure}{\numberline {6.11}{\ignorespaces Service Lifecycle}}{40}}
\@writefile{toc}{\contentsline {paragraph}{Use Cases}{40}}
\@writefile{lof}{\contentsline {figure}{\numberline {6.12}{\ignorespaces Register SW}}{41}}
\@writefile{lof}{\contentsline {figure}{\numberline {6.13}{\ignorespaces Service Worker Part1}}{41}}
\@writefile{lof}{\contentsline {figure}{\numberline {6.14}{\ignorespaces Service Worker Part2}}{41}}
\@writefile{toc}{\contentsline {subsection}{\numberline {6.4.3}Cache API}{41}}
\@writefile{lof}{\contentsline {figure}{\numberline {6.15}{\ignorespaces Open a Cache}}{42}}
\@writefile{lof}{\contentsline {figure}{\numberline {6.16}{\ignorespaces Operations}}{42}}
\@writefile{lof}{\contentsline {figure}{\numberline {6.17}{\ignorespaces Sample}}{42}}
\@writefile{toc}{\contentsline {subsection}{\numberline {6.4.4}WEB Worker API}{43}}
\@writefile{lof}{\contentsline {figure}{\numberline {6.18}{\ignorespaces Start Worker}}{43}}
\@writefile{lof}{\contentsline {figure}{\numberline {6.19}{\ignorespaces Worker Code}}{43}}
\@writefile{toc}{\contentsline {subsection}{\numberline {6.4.5}IndexedDb}{43}}
\@writefile{lof}{\contentsline {figure}{\numberline {6.20}{\ignorespaces Alternative Storages}}{44}}
\@writefile{lof}{\contentsline {figure}{\numberline {6.21}{\ignorespaces Initialize}}{44}}
\@writefile{lof}{\contentsline {figure}{\numberline {6.22}{\ignorespaces Store Data}}{45}}
\@writefile{lof}{\contentsline {figure}{\numberline {6.23}{\ignorespaces Get}}{45}}
\@writefile{lof}{\contentsline {figure}{\numberline {6.24}{\ignorespaces Get}}{45}}
\@writefile{lof}{\contentsline {figure}{\numberline {6.25}{\ignorespaces Delete Data}}{45}}
\@writefile{toc}{\contentsline {subsection}{\numberline {6.4.6}Web Storage}{46}}
\@writefile{toc}{\contentsline {subsection}{\numberline {6.4.7}A2H (Add 2 Homescreen)}{46}}
\@writefile{toc}{\contentsline {paragraph}{Requirements}{46}}
\@writefile{toc}{\contentsline {paragraph}{Web Manifest}{46}}
\@writefile{toc}{\contentsline {paragraph}{Limitierungen}{46}}
\@writefile{toc}{\contentsline {subsection}{\numberline {6.4.8}Web Push API}{46}}
\@writefile{toc}{\contentsline {subsection}{\numberline {6.4.9}Notifications API}{46}}
\@writefile{lof}{\contentsline {figure}{\numberline {6.26}{\ignorespaces Notifier Part 1}}{47}}
\@writefile{lof}{\contentsline {figure}{\numberline {6.27}{\ignorespaces Notifier Part 2}}{47}}
\@writefile{toc}{\contentsline {section}{\numberline {6.5}How to Deploy}{47}}
\@writefile{toc}{\contentsline {subsection}{\numberline {6.5.1}NODEJS Server only}{47}}
\@writefile{lof}{\contentsline {figure}{\numberline {6.28}{\ignorespaces nodejs server only}}{47}}
\@writefile{toc}{\contentsline {subsection}{\numberline {6.5.2}NODEJS API Server + CDN}{48}}
\@writefile{lof}{\contentsline {figure}{\numberline {6.29}{\ignorespaces Node js api Server + cdn}}{48}}
\@writefile{toc}{\contentsline {subsection}{\numberline {6.5.3}SERVERLESS + CDN}{48}}
\@writefile{lof}{\contentsline {figure}{\numberline {6.30}{\ignorespaces Serverless + cdn}}{48}}
