<?xml version="1.0" encoding="UTF-8"?>
<session version="1.0">
<refactoring accessors="true" comment="Delete element from project &apos;Collections2&apos;&#x0D;&#x0A;- Original project: &apos;Collections2&apos;&#x0D;&#x0A;- Original element: &apos;swe4.collections.abcd.java&apos;" description="Delete element" element1="/test&lt;swe4.collections{abcd.java" elements="1" flags="589830" id="org.eclipse.jdt.ui.delete" resources="0" stamp="1555085359208" subPackages="false" version="1.0"/>
</session>