[
    {
        "image": {
            "path": "img/batman.png",
            "width": 300,
            "height": 300
        },
        "fontSize": "35",
        "textParts": [
            {
                "x": 58,
                "y": 39,
                "text": "help!!"
            },
            {
                "x": 205,
                "y": 28,
                "text": "        I'm \n    batman!"
            }
        ]
    },
    {
        "image": {
            "path": "img/Futurama-Fry.jpg",
            "width": 552,
            "height": 414
        },
        "fontSize": "35",
        "textParts": [
            {
                "x": 24,
                "y": 36,
                "text": "My name is Fry!"
            }
        ]
    },
    {
        "image": {
            "path": "img/Grandma.jpg",
            "width": 552,
            "height": 414
        },
        "fontSize": "35",
        "textParts": [
            {
                "x": 34,
                "y": 263,
                "text": "Open your eyes ;-)"
            }
        ]
    },
    {
        "image": {
            "path": "img/One-Does-Not-Simply.jpg",
            "width": 552,
            "height": 414
        },
        "fontSize": "35",
        "textParts": [
            {
                "x": 24,
                "y": 36,
                "text": "My name is Fry!"
            }
        ]
    },
    {
        "image": {
            "path": "img/Roll-Safe-Think-About-It.jpg",
            "width": 552,
            "height": 414
        },
        "fontSize": "35",
        "textParts": [
            {
                "x": 166,
                "y": 40,
                "text": "Think first \n    before talk!"
            }
        ]
    },
    {
        "image": {
            "path": "img/baby.png",
            "width": 552,
            "height": 414
        },
        "fontSize": "35",
        "textParts": []
    }
]