\relax 
\@writefile{toc}{\contentsline {chapter}{\numberline {1}Korrektheitslemma}{2}}
\@writefile{lof}{\addvspace {10\p@ }}
\@writefile{lot}{\addvspace {10\p@ }}
\@writefile{lof}{\contentsline {figure}{\numberline {1.1}{\ignorespaces Graph1}}{2}}
\@writefile{toc}{\contentsline {chapter}{\numberline {2}A*}{3}}
\@writefile{lof}{\addvspace {10\p@ }}
\@writefile{lot}{\addvspace {10\p@ }}
