<?xml version="1.0" encoding="UTF-8"?>
<session version="1.0">
<refactoring comment="Delete resource &apos;XML-Termin-4-Parser-CourseCatalog&apos;" deleteContents="true" description="Delete resource &apos;XML-Termin-4-Parser-CourseCatalog&apos;" element1="/XML-Termin-4-Parser-CourseCatalog" flags="7" id="org.eclipse.ltk.core.refactoring.delete.resources" resources="1" stamp="1555693249715"/>
</session>