\relax 
\@writefile{toc}{\contentsline {chapter}{\numberline {1}Hashmap}{2}}
\@writefile{lof}{\addvspace {10\p@ }}
\@writefile{lot}{\addvspace {10\p@ }}
\@writefile{toc}{\contentsline {section}{\numberline {1.1}a - LinkedListChainingHashMap}{2}}
\@writefile{toc}{\contentsline {subsection}{\numberline {1.1.1}L\IeC {\"o}sungsidee}{2}}
\@writefile{toc}{\contentsline {subsection}{\numberline {1.1.2}Implementierung}{3}}
\@writefile{toc}{\contentsline {section}{\numberline {1.2}b - HashMapTest}{13}}
\@writefile{toc}{\contentsline {subsection}{\numberline {1.2.1}L\IeC {\"o}sungsidee}{13}}
\@writefile{toc}{\contentsline {subsection}{\numberline {1.2.2}Implementierung}{13}}
\@writefile{toc}{\contentsline {subsection}{\numberline {1.2.3}Tests}{17}}
\@writefile{lof}{\contentsline {figure}{\numberline {1.1}{\ignorespaces Tests}}{17}}
