\contentsline {chapter}{\numberline {1}Hashmap}{2}
\contentsline {section}{\numberline {1.1}a - LinkedListChainingHashMap}{2}
\contentsline {subsection}{\numberline {1.1.1}L\IeC {\"o}sungsidee}{2}
\contentsline {subsection}{\numberline {1.1.2}Implementierung}{3}
\contentsline {section}{\numberline {1.2}b - HashMapTest}{13}
\contentsline {subsection}{\numberline {1.2.1}L\IeC {\"o}sungsidee}{13}
\contentsline {subsection}{\numberline {1.2.2}Implementierung}{13}
\contentsline {subsection}{\numberline {1.2.3}Tests}{17}
