^C:\USERS\SCHAU\DOCUMENTS\FH-GIT\SS19\CGB\OPENGLPROJECT\OPENGLPROJECT\DEBUG\CGB4_G1_UE1_SCHAUBMAYR_LUKAS.OBJ|C:\USERS\SCHAU\DOCUMENTS\FH-GIT\SS19\CGB\OPENGLPROJECT\OPENGLPROJECT\DEBUG\CGB4_G1_UE2_SCHAUBMAYR_LUKAS.OBJ|C:\USERS\SCHAU\DOCUMENTS\FH-GIT\SS19\CGB\OPENGLPROJECT\OPENGLPROJECT\DEBUG\CGB4_G1_UE4_SCHAUBMAYR_LUKAS.OBJ|C:\USERS\SCHAU\DOCUMENTS\FH-GIT\SS19\CGB\OPENGLPROJECT\OPENGLPROJECT\DEBUG\LAB1.OBJ|C:\USERS\SCHAU\DOCUMENTS\FH-GIT\SS19\CGB\OPENGLPROJECT\OPENGLPROJECT\DEBUG\LAB2_SETUP.OBJ|C:\USERS\SCHAU\DOCUMENTS\FH-GIT\SS19\CGB\OPENGLPROJECT\OPENGLPROJECT\DEBUG\LAB3_SETUP.OBJ
C:\USERS\SCHAU\DOCUMENTS\FH-GIT\SS19\CGB\OPENGLPROJECT\DEBUG\OPENGLPROJECT.ILK
C:\USERS\SCHAU\DOCUMENTS\FH-GIT\SS19\CGB\OPENGLPROJECT\DEBUG\OPENGLPROJECT.EXE
C:\USERS\SCHAU\DOCUMENTS\FH-GIT\SS19\CGB\OPENGLPROJECT\DEBUG\OPENGLPROJECT.PDB
