\boolfalse {citerequest}\boolfalse {citetracker}\boolfalse {pagetracker}\boolfalse {backtracker}\relax 
\babel@toc {ngerman}{}
\defcounter {refsection}{0}\relax 
\contentsline {chapter}{\numberline {1}mathe - 2018.09.13}{3}{chapter.1}
\defcounter {refsection}{0}\relax 
\contentsline {section}{\numberline {1.1}Begriffe \& Definitionen}{3}{section.1.1}
\defcounter {refsection}{0}\relax 
\contentsline {section}{\numberline {1.2}Merkmale Arten}{3}{section.1.2}
\defcounter {refsection}{0}\relax 
\contentsline {section}{\numberline {1.3}Deskretive Statisik}{4}{section.1.3}
\defcounter {refsection}{0}\relax 
\contentsline {subsection}{\numberline {1.3.1}4 Zusammenh\IeC {\"a}ngene Ma\IeC {\ss }e}{4}{subsection.1.3.1}
\defcounter {refsection}{0}\relax 
\contentsline {subsection}{\numberline {1.3.2}7 Lagema\IeC {\ss }e}{4}{subsection.1.3.2}
\defcounter {refsection}{0}\relax 
\contentsline {subsection}{\numberline {1.3.3}4 Streueungsma\IeC {\ss }e}{4}{subsection.1.3.3}
\defcounter {refsection}{0}\relax 
\contentsline {subsection}{\numberline {1.3.4}2 Schiefema\IeC {\ss }e}{4}{subsection.1.3.4}
\defcounter {refsection}{0}\relax 
\contentsline {subsubsection}{Momente}{4}{subsection.1.3.4}
\defcounter {refsection}{0}\relax 
\contentsline {subsection}{\numberline {1.3.5}1 W\IeC {\"o}lbungsma\IeC {\ss }}{5}{subsection.1.3.5}
\defcounter {refsection}{0}\relax 
\contentsline {section}{\numberline {1.4}Median}{5}{section.1.4}
